[{"line":1,"elements":[{"line":4,"name":"Sample Api to be tested","description":"","id":"sample-api-to-be-tested","type":"scenario","keyword":"Scenario","steps":[{"name":"url apiURL","result":{"duration":93090,"status":"passed"},"match":{"location":"karate","arguments":[]},"keyword":"Given","line":5},{"name":"method GET","result":{"duration":2895716596,"status":"passed"},"match":{"location":"karate","arguments":[]},"keyword":"When","line":6,"doc_string":{"content_type":"","value":"23:19:29.967 request:\n1 > GET https:\/\/reqres.in\/api\/unknown\n1 > Accept-Encoding: gzip,deflate\n1 > Connection: Keep-Alive\n1 > Host: reqres.in\n1 > User-Agent: Apache-HttpClient\/4.5.12 (Java\/1.8.0_252)\n\n23:19:32.108 response time in milliseconds: 2136.66\n1 < 200\n1 < Access-Control-Allow-Origin: *\n1 < Age: 762\n1 < CF-Cache-Status: HIT\n1 < CF-RAY: 5a5f1651591edc43-LHR\n1 < Cache-Control: max-age=14400\n1 < Connection: keep-alive\n1 < Content-Type: application\/json; charset=utf-8\n1 < Date: Fri, 19 Jun 2020 17:49:31 GMT\n1 < Etag: W\/\"301-ijGNEim\/mAI7LpbQIXyQc2bjt+k\"\n1 < Expect-CT: max-age=604800, report-uri=\"https:\/\/report-uri.cloudflare.com\/cdn-cgi\/beacon\/expect-ct\"\n1 < Server: cloudflare\n1 < Set-Cookie: __cfduid=dfea3f970d583693a9a18ac94ac90fc2b1592588971; expires=Sun, 19-Jul-20 17:49:31 GMT; path=\/; domain=.reqres.in; HttpOnly; SameSite=Lax; Secure\n1 < Transfer-Encoding: chunked\n1 < Vary: Accept-Encoding\n1 < Via: 1.1 vegur\n1 < X-Powered-By: Express\n1 < cf-request-id: 036f4c46d90000dc43783dc200000001\n{\"page\":1,\"per_page\":6,\"total\":12,\"total_pages\":2,\"data\":[{\"id\":1,\"name\":\"cerulean\",\"year\":2000,\"color\":\"#98B2D1\",\"pantone_value\":\"15-4020\"},{\"id\":2,\"name\":\"fuchsia rose\",\"year\":2001,\"color\":\"#C74375\",\"pantone_value\":\"17-2031\"},{\"id\":3,\"name\":\"true red\",\"year\":2002,\"color\":\"#BF1932\",\"pantone_value\":\"19-1664\"},{\"id\":4,\"name\":\"aqua sky\",\"year\":2003,\"color\":\"#7BC4C4\",\"pantone_value\":\"14-4811\"},{\"id\":5,\"name\":\"tigerlily\",\"year\":2004,\"color\":\"#E2583E\",\"pantone_value\":\"17-1456\"},{\"id\":6,\"name\":\"blue turquoise\",\"year\":2005,\"color\":\"#53B0AE\",\"pantone_value\":\"15-5217\"}],\"ad\":{\"company\":\"StatusCode Weekly\",\"url\":\"http:\/\/statuscode.org\/\",\"text\":\"A weekly newsletter focusing on software development, infrastructure, the server, performance, and the stack end of things.\"}}","line":6}},{"name":"status 200","result":{"duration":33863,"status":"passed"},"match":{"location":"karate","arguments":[]},"keyword":"Then","line":7},{"name":"print response","result":{"duration":899276,"status":"passed"},"match":{"location":"karate","arguments":[]},"keyword":"And","line":8,"doc_string":{"content_type":"","value":"23:19:32.111 [print] {\n  \"per_page\": 6,\n  \"total\": 12,\n  \"ad\": {\n    \"company\": \"StatusCode Weekly\",\n    \"text\": \"A weekly newsletter focusing on software development, infrastructure, the server, performance, and the stack end of things.\",\n    \"url\": \"http:\/\/statuscode.org\/\"\n  },\n  \"data\": [\n    {\n      \"color\": \"#98B2D1\",\n      \"year\": 2000,\n      \"name\": \"cerulean\",\n      \"id\": 1,\n      \"pantone_value\": \"15-4020\"\n    },\n    {\n      \"color\": \"#C74375\",\n      \"year\": 2001,\n      \"name\": \"fuchsia rose\",\n      \"id\": 2,\n      \"pantone_value\": \"17-2031\"\n    },\n    {\n      \"color\": \"#BF1932\",\n      \"year\": 2002,\n      \"name\": \"true red\",\n      \"id\": 3,\n      \"pantone_value\": \"19-1664\"\n    },\n    {\n      \"color\": \"#7BC4C4\",\n      \"year\": 2003,\n      \"name\": \"aqua sky\",\n      \"id\": 4,\n      \"pantone_value\": \"14-4811\"\n    },\n    {\n      \"color\": \"#E2583E\",\n      \"year\": 2004,\n      \"name\": \"tigerlily\",\n      \"id\": 5,\n      \"pantone_value\": \"17-1456\"\n    },\n    {\n      \"color\": \"#53B0AE\",\n      \"year\": 2005,\n      \"name\": \"blue turquoise\",\n      \"id\": 6,\n      \"pantone_value\": \"15-5217\"\n    }\n  ],\n  \"page\": 1,\n  \"total_pages\": 2\n}","line":8}},{"name":"match response.total == 12","result":{"duration":6266138,"status":"passed"},"match":{"location":"karate","arguments":[]},"keyword":"And","line":9}],"tags":[{"name":"@Test","line":3}]}],"name":"src\/test\/java\/com\/knoldus\/test.feature","description":"Data Driven Demo in Karate DSL","id":"data-driven-demo-in-karate-dsl","keyword":"Feature","uri":"src\/test\/java\/com\/knoldus\/test.feature"}]